07.06.2018 15:04
Имя: TEST <br />Телефон: +7 (777) 777-77-77<br /><br />

07.06.2018 15:05
Имя: TEST<br />Телефон: +7 (777) 777-77-77<br /><br />

07.06.2018 15:08
Имя: TEST<br />Телефон: +7 (777) 777-77-77<br /><br />

07.06.2018 15:09
Имя: TEST<br />Телефон: +7 (777) 777-77-77<br /><br />

07.06.2018 15:11
Имя: 123<br />Телефон: 123113123123123123<br /><br />

07.06.2018 15:19
Имя: TEST<br />Телефон: +7 (131) 231-23-12<br/>Комментарий: 123123<br /><br />

13.06.2018 12:26
Имя: Бондаренко <br />Телефон: +7 (928) 904-69-53<br/>Комментарий: Консультация по бюгельным протезам<br /><br />

23.07.2018 12:50
Имя: Пахомов Ю.Г.<br />Телефон: +7 (952) 607-84-74<br /><br />

25.07.2018 12:39
Имя: Пронина Галина<br />Телефон: +7 (918) 519-27-85<br/>Комментарий: Трихолог Макарова <br /><br />

03.08.2018 12:58
Имя: Мария <br />Телефон: +7 (928) 279-27-60<br /><br />

06.08.2018 17:56
Имя: Гаджимагомедов Гасан Гаджимагомедович<br />Телефон: +7 (964) 943-98-12<br /><br />

14.08.2018 18:37
Имя: Пустоветова Ирина<br />Телефон: +7 (918) 743-49-58<br /><br />

16.08.2018 17:31
Имя: Осипова Ирина Яковлевна<br />Телефон: +7 (904) 449-18-79<br/>Комментарий: Нужно запломбировать зуб.<br /><br />

20.08.2018 16:15
Имя: Луценко Анастасия<br />Телефон: +7 (903) 488-98-44<br/>Комментарий: Хочу записаться к Юлии Хангашиевой на 22.08 на 18:00<br /><br />

26.08.2018 20:04
Имя: Алпатьева Елена Владимировна<br />Телефон: +7 (919) 871-31-04<br/>Комментарий: На консультация. 
1) Шатается мост из 3-х зубов.
2) Осмотр и консультация по состоянию остальных зубов, ортопантомограмма.
01 или 08 сентября, суббота. <br /><br />

31.08.2018 14:03
Имя: Ткачева Юлия Михайловна<br />Телефон: +7 (950) 860-97-30<br /><br />

16.09.2018 23:39
Имя: Анатолий<br />Телефон: +7 (928) 270-37-21<br /><br />

17.09.2018 08:13
Имя: Кучеренко Светлана Ивановна<br />Телефон: +7 (906) 414-16-94<br/>Комментарий: Удаление зуба<br /><br />

06.10.2018 16:33
Имя: Сова Татьяна<br />Телефон: +7 (938) 134-44-84<br /><br />

09.10.2018 17:25
Имя: Сангаджиева Цаган<br />Телефон: +7 (909) 398-69-21<br /><br />

11.10.2018 08:50
Имя: Палагнюк Милана Евгеньевна<br />Телефон: +7 (908) 190-20-68<br/>Комментарий: Ребенок. Почти 7 лет. Осмотр и лечение<br /><br />

15.10.2018 12:46
Имя: Волынкина Алина<br />Телефон: +7 (999) 699-19-35<br /><br />

16.10.2018 17:24
Имя: Волкова Елена<br />Телефон: +7 (918) 855-85-33<br /><br />

18.10.2018 11:16
Имя: Малова Дарья Валерьевна<br />Телефон: +7 (919) 875-08-57<br /><br />

25.10.2018 14:47
Имя: Мусиенко Анастасия<br />Телефон: +7 (988) 534-_3-42<br /><br />

25.10.2018 14:47
Имя: Мусиенко Анастасия<br />Телефон: +7 (988) 534-_3-42<br /><br />

25.10.2018 14:47
Имя: Мусиенко Анастасия<br />Телефон: +7 (988) 534-_3-42<br /><br />

29.10.2018 12:26
Имя: Чистяков Сергей Фёдорович <br />Телефон: +7 (989) 627-20-47<br/>Комментарий: Нужно удалить корень сколько будет стоить?<br /><br />

31.10.2018 13:29
Имя: Серикова Хадиша Муслимовна9<br />Телефон: +7 (903) 474-40-45<br /><br />

03.11.2018 13:54
Имя: Софья <br />Телефон: +7 (915) 951-73-53<br /><br />

08.11.2018 14:42
Имя: Морякова Виктория Сергеевна<br />Телефон: +7 (928) 162-62-16<br/>Комментарий: К трихологу<br /><br />

11.11.2018 16:13
Имя: ЛЮДМИЛА<br />Телефон: +7 (950) 842-03-21<br /><br />

12.11.2018 21:40
Имя: Чепурная Галина <br />Телефон: +7 (952) 609-08-04<br/>Комментарий: удаление восьмого зуба в нижней челюсти<br /><br />

13.11.2018 10:10
Имя: Пустобаева Александра Ивановна<br />Телефон: +7 (952) 588-68-39<br /><br />

13.11.2018 10:11
Имя: Александра<br />Телефон: +7 (9085159863___) ___-__-__<br /><br />

20.11.2018 18:43
Имя: Сахарова Татьяна Евгеньевна<br />Телефон: +7 (928) 601-68-96<br /><br />

21.11.2018 19:01
Имя: Ворожцова Мария<br />Телефон: +7 (961) 319-69-64<br/>Комментарий: Провести переговоры по сотрудничеству и по совместной маркетинговой акции, позволяющей увеличить клиентскую базу клиники.<br /><br />

28.11.2018 15:29
Имя: Лариса<br />Телефон: +7 (919) 898-07-55<br /><br />

28.11.2018 15:30
Имя: Лариса<br />Телефон: +7 (919) 898-07-55<br /><br />

28.11.2018 15:30
Имя: Лариса<br />Телефон: +7 (919) 898-07-55<br /><br />

28.11.2018 15:30
Имя: Лариса<br />Телефон: +7 (919) 898-07-55<br /><br />

28.11.2018 15:30
Имя: Лариса<br />Телефон: +7 (919) 898-07-55<br /><br />

28.11.2018 15:30
Имя: Лариса Юрьевна<br />Телефон: +7 (919) 898-07-55<br /><br />

28.11.2018 15:30
Имя: Лариса Юрьевна С<br />Телефон: +7 (919) 898-07-55<br /><br />

28.11.2018 15:31
Имя: Лариса<br />Телефон: +7 (919) 898-07-55<br /><br />

30.11.2018 14:18
Имя: Изразова Наталья Евгеньена<br />Телефон: +7 (960) 457-22-19<br /><br />

16.12.2018 21:33
Имя: Виниченко Татьяна викторовна<br />Телефон: +7 (918) 514-70-06<br/>Комментарий: Запись на вечерне время после 17:30 , кариес<br /><br />

24.12.2018 14:38
Имя: Каменев Владислав Игоревич<br />Телефон: +7 (919) 894-62-84<br/>Комментарий: На четверг<br /><br />

25.12.2018 17:10
Имя: Изабелла <br />Телефон: +7 (951) 535-03-91<br /><br />

16.01.2019 14:59
Имя: Морозов Дмитрий Владимирович <br />Телефон: +7 (909) 414-90-91<br /><br />

05.02.2019 22:44
Имя: Ольга<br />Телефон: +7 (909) 412-39-98<br/>Комментарий: Подскажите,пожалуйста,график работы Шевцовой<br /><br />

20.02.2019 11:20
Имя: НОННА<br />Телефон: +7 (_90) 943-60-36<br /><br />

26.02.2019 17:06
Имя: Макаров Вадим александрович<br />Телефон: +7 (890) 013-30-78<br /><br />

27.02.2019 12:34
Имя: Елена Ткаченко<br />Телефон: +7 (900) 135-00-21<br /><br />

28.02.2019 12:11
Имя: Елена Петровна<br />Телефон: +7 (918) 891-25-21<br /><br />

06.03.2019 13:30
Имя: Михаил<br />Телефон: +7 (909) 403-09-71<br /><br />

07.03.2019 09:19
Имя: антон<br />Телефон: +7 (928) 121-31-63<br/>Комментарий: эпиляция<br /><br />

10.03.2019 14:47
Имя: Кириченко Олег Владимирович<br />Телефон: +7 (988) 536-13-22<br/>Комментарий: Вторник 9-00<br /><br />

12.03.2019 10:49
Имя: Уколова Кристина Александровна<br />Телефон: +7 (960) 445-65-49<br/>Комментарий: Добрый день!
Интересуюсь процедурй отбиливания зубов и частичного восстановления одного зуба.<br /><br />

20.03.2019 14:33
Имя: Виктория<br />Телефон: +7 (904) 508-37-34<br /><br />

21.03.2019 19:52
Имя: Наталья<br />Телефон: +7 (989) 520-48-08<br/>Комментарий: 
<br /><br />

22.03.2019 14:58
Имя: Юлия<br />Телефон: +7 (988) 252-87-14<br /><br />

04.04.2019 10:50
Имя: Мандрык Галина Васильевна<br />Телефон: +7 (960) 467-91-78<br/>Комментарий: Здравствуйте. Прошу записать меня на прием к ортодонту по поводу протезирования, имплантации зубов <br /><br />

10.04.2019 16:25
Имя: Перунова Виолетта Анатольевна <br />Телефон: +7 (928) 956-61-40<br/>Комментарий: Удаление зуба<br /><br />

25.04.2019 12:08
Имя: Парнякова Екатерина Леонидовна <br />Телефон: +7 (989) 515-11-25<br /><br />

25.04.2019 16:07
Имя: Ким Виктория Сергеевна<br />Телефон: +7 (909) 404-55-35<br /><br />

19.05.2019 21:55
Имя: Коровин Денис Олегович<br />Телефон: +7 (928) 965-00-77<br/>Комментарий: Откололась часть зуба и старой пломбы.<br /><br />

19.05.2019 21:56
Имя: Коровин Денис Олегович<br />Телефон: +7 (928) 965-00-77<br/>Комментарий: Откололась часть зуба и старой пломбы.<br /><br />

19.05.2019 21:56
Имя: Коровин Денис Олегович<br />Телефон: +7 (928) 965-00-77<br/>Комментарий: Откололась часть зуба и старой пломбы.<br /><br />

19.05.2019 21:56
Имя: Коровин Денис Олегович<br />Телефон: +7 (928) 965-00-77<br/>Комментарий: Откололась часть зуба и старой пломбы.<br /><br />

22.05.2019 08:24
Имя: Махмаева Дженнет Набиевна<br />Телефон: +7 (961) 298-73-30<br/>Комментарий: Чистка зубов_)<br /><br />

31.05.2019 12:45
Имя: Гончаров Александр Викторович <br />Телефон: +7 (989) 805-17-95<br /><br />

20.06.2019 21:47
Имя: Алексеева Елена Павловна<br />Телефон: +7 (988) 550-94-40<br/>Комментарий: Добрый день! Хочу записаться на чистку к доктору Шевцовой на 16 июля в 11 часов. Потом на 18 июля на пломбировку двух зубов. <br /><br />

01.07.2019 13:11
Имя: Каменович Надежда Сергеевна<br />Телефон: +7 (988) 586-96-55<br /><br />

01.07.2019 14:31
Имя: Светлана<br />Телефон: +7 (950) 864-93-53<br/>Комментарий: Запись на первичный прием к косметологу<br /><br />

11.07.2019 16:08
Имя: Наталья<br />Телефон: +7 (989) 709-68-89<br/>Комментарий: Добрый день!
Мы большая стабильная компания, предлагаем Вам сотрудничество! У нас большой выбор канцелярских принадлежностей, а также большой выбор бытовой химии, гигиенической продукции, уборочного инвентаря. Более подробно Вы можете ознакомиться с нашим ассортиментов на сайте www.zebra-universal.ru.
<br /><br />

17.07.2019 07:41
Имя: Гагарина КО<br />Телефон: +7 (904) 443-45-26<br /><br />

19.07.2019 10:22
Имя: Иванеева Зинаида Викторовна<br />Телефон: +7 (918) 520-46-42<br/>Комментарий: Добрый день! если можно то встречу на выходные, если работаете<br /><br />

21.07.2019 22:30
Имя: Гологудина Ольга Васильевна<br />Телефон: +7 (928) 192-04-58<br /><br />

22.07.2019 08:18
Имя: Ераксина<br />Телефон: +7 (908) 198-50-49<br/>Комментарий: Чистка зубов<br /><br />

02.08.2019 12:19
Имя: Кайкова Ольга Борисовна<br />Телефон: +7 (952) 322-14-96<br /><br />

04.08.2019 14:02
Имя: Клименко Ирина<br />Телефон: +7 (919) 882-07-62<br/>Комментарий: На прием к Екатерине Журавлевой<br /><br />

06.08.2019 11:07
Имя: Ерышова Лидия Васильевна<br />Телефон: +7 (961) 283-71-73<br/>Комментарий: лечение зуба<br /><br />

06.08.2019 21:33
Имя: Серегин Вячеслав Викторович<br />Телефон: +7 (951) 844-16-59<br/>Комментарий: Суббота 10 авргуста<br /><br />

15.08.2019 10:21
Имя: Навожу справку<br />Телефон: +7 (904) 343-52-73<br /><br />

15.08.2019 13:11
Имя: Кузьмина Наталья Борисовна<br />Телефон: +7 (928) 121-21-47<br/>Комментарий: Необходимо удалить остаток  7 зуба нижнего и установить имплантант.<br /><br />

19.08.2019 14:23
Имя: Кудрявых Марина Николаевна<br />Телефон: +7 (951) 839-99-04<br/>Комментарий: Снятие мостовидного протеза,удаление 4-ки нижней<br /><br />

06.09.2019 20:59
Имя: Трубникова Ирина Николаевна <br />Телефон: +7 (918) 566-68-28<br/>Комментарий: Запишите пожалуйста к врачу Журавлевой на плазмолифтинг кожи головы<br /><br />

08.09.2019 12:15
Имя: Дмитрий<br />Телефон: +7 (960) 444-68-98<br/>Комментарий: Добрый день. Хотел бы записаться на субботу на утро.<br /><br />

08.09.2019 13:18
Имя: Бидасюк Дмитрий<br />Телефон: +7 (905) 478-17-36<br/>Комментарий: Желательно на 09.09 на 17:30-18:00, если есть запись<br /><br />

08.09.2019 20:07
Имя: Исупова Алла Викторовна<br />Телефон: +7 (928) 168-83-82<br /><br />

09.09.2019 12:31
Имя: Нескубина Светлана Михайловна<br />Телефон: +7 (938) 114-28-52<br/>Комментарий: Добрый день! Хочу записаться на 09.09.2019 на 18.30 на консультацию по поводу зуба мудрости в филиал на Королева 18<br /><br />

09.09.2019 16:20
Имя: Мёд Александра Сергеевна<br />Телефон: +7 (918) 565-63-71<br/>Комментарий: Приём к ортодонту, консультация о установке пластины<br /><br />

09.09.2019 16:20
Имя: Мёд Александра Сергеевна<br />Телефон: +7 (918) 565-63-71<br/>Комментарий: Приём к ортодонту, консультация о установке пластины<br /><br />

09.09.2019 16:20
Имя: Мёд Александра Сергеевна<br />Телефон: +7 (918) 565-63-71<br/>Комментарий: Приём к ортодонту, консультация о установке пластины<br /><br />

09.09.2019 16:20
Имя: Мёд Александра Сергеевна<br />Телефон: +7 (918) 565-63-71<br/>Комментарий: Приём к ортодонту, консультация о установке пластины<br /><br />

09.09.2019 16:20
Имя: Мёд Александра Сергеевна<br />Телефон: +7 (918) 565-63-71<br/>Комментарий: Приём к ортодонту, консультация о установке пластины<br /><br />

09.09.2019 16:20
Имя: Мёд Александра Сергеевна<br />Телефон: +7 (918) 565-63-71<br/>Комментарий: Приём к ортодонту, консультация о установке пластины<br /><br />

09.09.2019 16:20
Имя: Мёд Александра Сергеевна<br />Телефон: +7 (918) 565-63-71<br/>Комментарий: Приём к ортодонту, консультация о установке пластины<br /><br />

09.09.2019 16:20
Имя: Мёд Александра Сергеевна<br />Телефон: +7 (918) 565-63-71<br/>Комментарий: Приём к ортодонту, консультация о установке пластины<br /><br />

09.09.2019 16:20
Имя: Мёд Александра Сергеевна<br />Телефон: +7 (918) 565-63-71<br/>Комментарий: Приём к ортодонту, консультация о установке пластины<br /><br />

09.09.2019 16:21
Имя: Мёд Александра Сергеевна<br />Телефон: +7 (918) 565-63-71<br/>Комментарий: Приём к ортодонту, консультация о установке пластины<br /><br />

09.09.2019 16:21
Имя: Мёд Александра Сергеевна<br />Телефон: +7 (918) 565-63-71<br/>Комментарий: Приём к ортодонту, консультация о установке пластины<br /><br />

09.09.2019 16:21
Имя: Мёд Александра Сергеевна<br />Телефон: +7 (918) 565-63-71<br/>Комментарий: Приём к ортодонту, консультация о установке пластины<br /><br />

09.09.2019 16:21
Имя: Мёд Александра Сергеевна<br />Телефон: +7 (918) 565-63-71<br/>Комментарий: Приём к ортодонту, консультация о установке пластины<br /><br />

09.09.2019 16:21
Имя: Мёд Александра Сергеевна<br />Телефон: +7 (918) 565-63-71<br/>Комментарий: Приём к ортодонту, консультация о установке пластины<br /><br />

09.09.2019 16:21
Имя: Мёд Александра Сергеевна<br />Телефон: +7 (918) 565-63-71<br/>Комментарий: Приём к ортодонту, консультация о установке пластины<br /><br />

09.09.2019 16:21
Имя: Мёд Александра Сергеевна<br />Телефон: +7 (918) 565-63-71<br/>Комментарий: Приём к ортодонту, консультация о установке пластины<br /><br />

09.09.2019 16:21
Имя: Мёд Александра Сергеевна<br />Телефон: +7 (918) 565-63-71<br/>Комментарий: Приём к ортодонту, консультация о установке пластины<br /><br />

09.09.2019 16:21
Имя: Мёд Александра Сергеевна<br />Телефон: +7 (918) 565-63-71<br /><br />

09.09.2019 16:21
Имя: Мёд Александра Сергеевна<br />Телефон: +7 (918) 565-63-71<br /><br />

09.09.2019 16:21
Имя: Мёд Александра Сергеевна<br />Телефон: +7 (918) 565-63-71<br /><br />

09.09.2019 16:21
Имя: Мёд Александра Сергеевна<br />Телефон: +7 (918) 565-63-71<br /><br />

09.09.2019 16:21
Имя: Мёд Александра Сергеевна<br />Телефон: +7 (918) 565-63-71<br /><br />

09.09.2019 16:25
Имя: Мёд Александра Сергеевна<br />Телефон: +7 (918) 565-63-71<br/>Комментарий: Прием к ортодонту, консультация о установке пластины <br /><br />

08.10.2019 09:12
Имя: игорь<br />Телефон: +7 (908) 502-15-12<br /><br />

17.10.2019 14:14
Имя: Ханцеверова Татьяна Михайловна<br />Телефон: +7 (918) 573-14-33<br /><br />

28.10.2019 00:29
Имя: Железникова Кристина Алексеевна<br />Телефон: +7 (961) 275-85-44<br/>Комментарий: Нужна консультация специалиста ,нужно лечение зубов, именно пломбирование.<br /><br />

31.10.2019 11:21
Имя: Катерина Парнякова<br />Телефон: +7 (989) 515-11-25<br /><br />

02.11.2019 10:52
Имя: Сытин Сергей Анатольевич<br />Телефон: +7 (988) 580-88-34<br /><br />

02.11.2019 10:52
Имя: Сытин Сергей Анатольевич<br />Телефон: +7 (988) 580-88-34<br /><br />

02.11.2019 10:52
Имя: Сытин Сергей Анатольевич<br />Телефон: +7 (988) 580-88-34<br /><br />

04.11.2019 15:36
Имя: Фетисова Евгения Владимировна<br />Телефон: +7 (928) 121-19-43<br /><br />

06.11.2019 14:32
Имя: Доденко Кристина Андреевна <br />Телефон: +7 (961) 317-92-60<br /><br />

16.11.2019 00:35
Имя: Москаленко Дмитрий Николаевич <br />Телефон: +7 (918) 966-75-89<br/>Комментарий: К косметологу <br /><br />

01.12.2019 13:55
Имя: Виктория <br />Телефон: +7 (989) 525-50-5_<br /><br />

01.12.2019 13:55
Имя: Виктория <br />Телефон: +7 (989) 525-35-05<br /><br />

04.12.2019 16:09
Имя: Денис<br />Телефон: +7 (918) 555-29-93<br/>Комментарий: Тестирование заявки, позвоните<br /><br />

04.12.2019 16:33
Имя: Денис<br />Телефон: +7 (918) 555-29-93<br/>Комментарий: Здравствуйте!<br /><br />

04.12.2019 16:34
Имя: Денис<br />Телефон: +7 (918) 555-29-93<br /><br />

09.12.2019 07:00
Имя: валерий иванович<br />Телефон: +7 (891) 853-59-94<br /><br />

09.12.2019 07:00
Имя: валерий иванович<br />Телефон: +7 (891) 853-59-94<br /><br />

09.12.2019 07:00
Имя: валерий иванович<br />Телефон: +7 (891) 853-59-94<br /><br />

09.12.2019 10:33
Имя: Зубкова Марина Рафиковна<br />Телефон: +7 (903) 486-45-63<br/>Комментарий: Гигиена полости рта<br /><br />

11.12.2019 10:47
Имя: кожарский николай николаевич<br />Телефон: +7 (908) 180-09-21<br/>Комментарий: протезирование нижней челюсти<br /><br />

11.12.2019 10:47
Имя: кожарский николай николаевич<br />Телефон: +7 (908) 180-09-21<br/>Комментарий: протезирование нижней челюсти<br /><br />

11.12.2019 10:47
Имя: кожарский николай николаевич<br />Телефон: +7 (908) 180-09-21<br/>Комментарий: протезирование нижней челюсти<br /><br />

11.12.2019 10:47
Имя: кожарский николай николаевич<br />Телефон: +7 (908) 180-09-21<br/>Комментарий: протезирование нижней челюсти<br /><br />

11.12.2019 10:47
Имя: кожарский николай николаевич<br />Телефон: +7 (908) 180-09-21<br/>Комментарий: протезирование нижней челюсти<br /><br />

11.12.2019 10:47
Имя: кожарский николай николаевич<br />Телефон: +7 (908) 180-09-21<br/>Комментарий: протезирование нижней челюсти<br /><br />

11.12.2019 10:47
Имя: кожарский николай николаевич<br />Телефон: +7 (908) 180-09-21<br/>Комментарий: протезирование нижней челюсти<br /><br />

11.12.2019 10:48
Имя: кожарский николай николаевич<br />Телефон: +7 (908) 180-09-21<br/>Комментарий: протезирование нижней челюсти<br /><br />

30.12.2019 09:42
Имя: КРАСИЛЬНИКОВ ЕВГЕНИЙ<br />Телефон: +7 (952) 572-96-78<br /><br />

08.01.2020 17:45
Имя: Илья Павлович Сяков<br />Телефон: +7 (938) 119-90-33<br/>Комментарий: Здравствуйте. Меня зовут Сяков Илья. Мы продаём действующую стоматологическую клинику  с косметологическим кабинетом в Ростове на Дону.  Площадь 130 м2. Продаём как действующий бизнес со своим помещением и налаженными бизнес процессами. Если Вам интересно расширить свой бизнес, и это предложение Вам интересно, позвоните или напишите мне. Я с удовольствием всё расскажу!.<br /><br />

25.01.2020 09:10
Имя: Хоперскова Анна Владимировна<br />Телефон: +7 (918) 538-88-08<br /><br />

27.01.2020 12:21
Имя: Милешкин Вадим Ярославович<br />Телефон: +7 (905) 453-20-55<br/>Комментарий: Добрый день, мне нужно записаться на первичный приём к шевцовой наталье  львовне, <br /><br />

06.02.2020 00:40
Имя: Подзолкина Яна Олеговна <br />Телефон: +7 (989) 516-22-41<br/>Комментарий: Ультразвуковая чистка зубов<br /><br />

